-------------------------------------------------------------------------------
Test set: org.eclipselabs.spray.shapes.tests.svg.Lwc2012SVGGeneratorTest
-------------------------------------------------------------------------------
Tests run: 15, Failures: 0, Errors: 0, Skipped: 0, Time elapsed: 0.142 sec - in org.eclipselabs.spray.shapes.tests.svg.Lwc2012SVGGeneratorTest
